-8.582666666666666515e+02
-7.604733333333333576e+02
-8.188333333333333712e+02
-7.756333333333333258e+02
-7.623566666666666833e+02
-7.980566666666666151e+02
-7.783866666666666561e+02
-8.587633333333333212e+02
-7.983533333333333530e+02
-8.117200000000000273e+02
-7.743666666666666742e+02
-8.009033333333333076e+02
-7.948066666666666151e+02
-7.495966666666666924e+02
-8.717366666666666788e+02
-7.491166666666666742e+02
-7.502366666666666788e+02
-7.507366666666666788e+02
-9.820366666666666333e+02
-7.651499999999999773e+02
-1.001346666666666692e+03
-7.486133333333333439e+02
-9.740900000000000318e+02
-7.499266666666666197e+02
-8.328366666666667015e+02
-7.493633333333333439e+02
-8.836000000000000227e+02
-8.365166666666666515e+02
-8.437966666666666242e+02
-7.664199999999999591e+02
-7.763133333333333894e+02
-7.516733333333332894e+02
-9.426299999999999955e+02
-7.570733333333333803e+02
-7.815633333333333894e+02
-7.632100000000000364e+02
-8.200766666666667106e+02
-7.832566666666666606e+02
-7.492400000000000091e+02
-7.956699999999999591e+02
-7.712933333333332939e+02
-7.509566666666667061e+02
-7.588233333333333803e+02
-7.722066666666667061e+02
-7.900366666666666333e+02
-7.504966666666666697e+02
-8.010933333333333621e+02
-7.540099999999999909e+02
-7.713899999999999864e+02
-8.660599999999999454e+02
-8.394766666666666879e+02
-8.292333333333333485e+02
-7.752633333333333212e+02
-8.372300000000000182e+02
-8.895166666666666515e+02
-8.321866666666666106e+02
-1.089706666666666706e+03
-7.693700000000000045e+02
-8.007333333333333485e+02
-7.999700000000000273e+02
-9.036299999999999955e+02
-8.026100000000000136e+02
-9.762966666666666242e+02
-7.932166666666666970e+02
-8.636033333333333530e+02
-7.749433333333333849e+02
-8.056766666666666197e+02
-8.024633333333333667e+02
-7.911200000000000045e+02
-8.705466666666666242e+02
-7.909833333333333485e+02
-7.829566666666667061e+02
-7.581033333333333530e+02
-8.070133333333333212e+02
-8.117666666666666515e+02
-9.022033333333333758e+02
-8.192266666666666879e+02
-9.329633333333333667e+02
-8.564966666666666697e+02
-8.377233333333333576e+02
-8.331666666666666288e+02
-8.080733333333333803e+02
-7.900800000000000409e+02
-9.409333333333332803e+02
-7.628666666666666742e+02
-8.281966666666667152e+02
-7.484400000000000546e+02
-7.629433333333333849e+02
-7.544633333333333667e+02
-7.542566666666666606e+02
-7.497133333333333667e+02
-7.622533333333333303e+02
-7.486733333333332894e+02
-9.072233333333333576e+02
-7.655866666666667015e+02
-8.461733333333332894e+02
-8.540766666666667106e+02
-7.676599999999999682e+02
-8.460966666666666924e+02
-7.615166666666666515e+02
